{
    "common_error_no_account": "This account doesn't exist.",
    "common_error_email_password_chars": "Password must contain at least 8 characters and at least one letter and one number.",
    "common_error_password_mismatch": "Passwords don't match.",
    "common_error_no_email": "Please enter your e-mail address.",
    "common_error_email_invalid": "Please enter a valid e-mail address.",
    "register_success": "Account successfully created. Link to verify your e-mail address was sent to your e-mail account.",
    "register_error_email_exists": "Account with this e-mail address already exists.",
    "login_error_no_email_password": "Please enter your e-mail and password.",
    "login_error_email_not_verified": "Your e-mail address is not verified. Before logging in, you must first verify your e-mail address. Link to verify your e-mail address was sent to your e-mail account. Please also check if this verification e-mail isn't in spam folder.",
    "login_error_password_incorrect": "Password is incorrect.",
    "password_reset_success": "Instructions for resetting your password were sent to your e-mail address.",
    "password_set_success": "The password has been set successfully. You can now log in with your new password.",
    "password_set_error_link_invalid": "Cannot reset password. Link to reset password is not valid.",
    "track_update_error_no_name": "Cannot update unnamed track.",
    "track_update_error_add_track": "Error while adding track.",
    "track_update_error_update_track": "Error while updating track.",
    "track_delete_error_delete_track": "Error while deleting track.",
    "waypoint_update_error_no_name": "Cannot update unnamed waypoint.",
    "waypoint_update_error_add_waypoint": "Error while adding waypoint.",
    "waypoint_update_error_update_waypoint": "Error while updating waypoint.",
    "waypoint_delete_error_delete_waypoint": "Error while deleting waypoint.",
    "import_tracks_file_success": "Imported tracks: {{trk}}, waypoints: {{wpt}}.",
    "upload_image_error_ext": "Cannot upload image. Supported image types are jpg, gif and png.",
    "upload_image_error_storage_size": "Cannot upload image. There is no free storage space for images.",
    "newsletter_subscribe_error": "Cannot subscribe to a newsletter, please try it again later.",
    "newsletter_unsubscribe_error": "Cannot unsubscribe from a newsletter, please try it again later.",
    "not_found": "Not found."
}
