{
    "common_error_no_account": "Tento účet neexistuje.",
    "common_error_password_mismatch": "Hesla se neshodují.",
    "common_error_email_password_chars": "Heslo musí obsahovat alespoň 8 znaků a alespoň jedno písmeno a jednu číslici.",
    "common_error_no_email": "Zadejte prosím svou e-mailovou adresu.",
    "common_error_email_invalid": "Prosím zadejte platnou emailovou adresu.",
    "register_success": "Účet byl úspěšně vytvořen. Odkaz pro ověření vaší e-mailové adresy byl odeslán na váš e-mail.",
    "register_error_email_exists": "Účet s touto e-mailovou adresou již existuje.",
    "login_error_no_email_password": "Zadejte prosím svůj e-mail a heslo.",
    "login_error_email_not_verified": "Vaše e-mailová adresa není ověřena. Před přihlášením musíte nejprve ověřit svou e-mailovou adresu. Na váš e-mailový účet byl zaslán odkaz pro ověření vaší e-mailové adresy.",
    "login_error_password_incorrect": "Heslo není správné.",
    "password_reset_success": "Na vaši e-mailovou adresu byly zaslány pokyny k obnovení hesla.",
    "password_set_success": "Heslo bylo úspěšně nastaveno. Nyní se můžete přihlásit pomocí nového hesla.",
    "password_set_error_link_invalid": "Heslo není možné obnovit. Odkaz na obnovení hesla je neplatný.",
    "track_update_error_no_name": "Nepojmenovanou stopu nelze aktualizovat.",
    "track_update_error_add_track": "Chyba při přidávání stopy.",
    "track_update_error_update_track": "Chyba při aktualizaci stopy.",
    "track_delete_error_delete_track": "Chyba při odstraňování stopy.",
    "waypoint_update_error_no_name": "Nelze aktualizovat nepojmenovaný trasový bod.",
    "waypoint_update_error_add_waypoint": "Chyba při přidávání trasového bodu.",
    "waypoint_update_error_update_waypoint": "Chyba při aktualizaci trasového bodu.",
    "waypoint_delete_error_delete_waypoint": "Chyba při odstraňování trasového bodu.",
    "import_tracks_file_success": "Importované stopy: {{trk}}, trasové body: {{wpt}}.",
    "newsletter_subscribe_error": "Nelze se přihlásit k odběru newsletteru, zkuste to prosím později.",
    "newsletter_unsubscribe_error": "Nelze se odhlásit z odběru newsletteru, zkuste to prosím později."
}
