{
    "common_error_no_account": "Tento účet neexistuje.",
    "common_error_email_password_chars": "Heslo musí obsahovať minimálne 8 znakov a aspoň jeden znak a jedno číslo.",
    "common_error_password_mismatch": "Heslá sa nezhodujú.",
    "common_error_email_invalid": "Prosím, vložte správnu e-mailovú adresu.",
    "register_success": "Účet bol úspešne vytvorený. Odkaz na overenie Vašej e-mailovej adresy bol odoslaný na Váš e-mailový účet.",
    "register_error_email_exists": "Účet s touto e-mailovou adresou už existuje.",
    "login_error_no_email_password": "Prosím, vložte Váš e-mail a heslo.",
    "login_error_email_not_verified": "Vaša e-mailová adresa ešte nebola overená. Pred prihlásením sa je potrebné overiť Vašu e-mailovú adresu. Odkaz na overenie Vašej e-mailovej adresy bol odoslaný na Váš e-mailový účet. Prosím, taktiež skontrolujte, či tento e-mail nie je v adresári so spamom.",
    "login_error_password_incorrect": "Heslo je nesprávne.",
    "password_reset_success": "Inštrukcie na resetovanie hesla boli zaslané na Vašu e-mailovú adresu.",
    "common_error_no_email": "Prosím, vložte Vašu e-mailovú adresu.",
    "password_set_success": "Heslo bolo úspešne resetované. Teraz sa môžete prihlásiť s novým heslom.",
    "password_set_error_link_invalid": "Nie je možné resetovať heslo. Odkaz na resetovanie hesla nie je správny.",
    "track_update_error_no_name": "Nie je možné aktualizovať trasu bez názvu.",
    "track_update_error_add_track": "Nastala chyba pri pridávaní trasy.",
    "track_update_error_update_track": "Nastala chyba pri aktualizácii trasy.",
    "track_delete_error_delete_track": "Nastala chyba pri odstraňovaní trasy.",
    "waypoint_update_error_no_name": "Nie je možné aktualizovať významný bod bez názvu.",
    "waypoint_update_error_add_waypoint": "Nastala chyba pri pridávaní významného bodu.",
    "waypoint_update_error_update_waypoint": "Nastala chyba pri aktualizácii významného bodu.",
    "waypoint_delete_error_delete_waypoint": "Nastala chyba pri odstraňovaní významného bodu.",
    "import_tracks_file_success": "Importované trasy: {{trk}}, významné body: {{wpt}}.",
    "upload_image_error_ext": "Nie je možné nahrať obrázok. Podporované typy súborov sú jpg, gif a png.",
    "upload_image_error_storage_size": "Nie je možné nahrať obrázok. Už nie je voľné miesto na ukladanie obrázkov.",
    "newsletter_subscribe_error": "Nie je možné zaregistrovať sa na newsletter, prosím skúste to neskôr.",
    "newsletter_unsubscribe_error": "Nie je možné odregistrovať sa z newslettera, prosím skúste to neskôr.",
    "not_found": "Nenájdený."
}
